{
    "data": [
        {
            "FID": 0,
            "Asset_Type": "Drinking Fountain - Floorstanding",
            "Place": "Neerim & District Swimming Pool",
            "Street_Nam": "Swaffield Road",
            "Town": "NEERIM SOUTH",
            "Latitude": -38.0174779979,
            "Longitude": 145.954944003
        },
        {
            "FID": 1,
            "Asset_Type": "Drinking Fountain - Bubbler Tap",
            "Place": "Craig Watts Skate Park",
            "Street_Nam": "Neerim East Road",
            "Town": "NEERIM SOUTH",
            "Latitude": -38.0162410006,
            "Longitude": 145.954972005
        },
        {
            "FID": 2,
            "Asset_Type": "Drinking Fountain - Bubbler Tap",
            "Place": "Allan Croxford Reserve",
            "Street_Nam": "Knotts Siding Road",
            "Town": "RAWSON",
            "Latitude": -37.9597620046,
            "Longitude": 146.398269003
        },
        {
            "FID": 3,
            "Asset_Type": "Drinking Fountain - Bubbler Tap (masnory stand)",
            "Place": "Pioneer Park",
            "Street_Nam": "Campbell Street",
            "Town": "YARRAGON",
            "Latitude": -38.2046150026,
            "Longitude": 146.064422997
        },
        {
            "FID": 4,
            "Asset_Type": "Drinking Fountain - Bubbler Tap",
            "Place": "Brooker Park",
            "Street_Nam": "Bowen Street",
            "Town": "WARRAGUL",
            "Latitude": -38.1461079982,
            "Longitude": 145.933901997
        },
        {
            "FID": 5,
            "Asset_Type": "Drinking Fountain - Bubbler Tap",
            "Place": "Boronia Street Park",
            "Street_Nam": "Boronia Street",
            "Town": "WARRAGUL",
            "Latitude": -38.1480689993,
            "Longitude": 145.929200997
        },
        {
            "FID": 6,
            "Asset_Type": "Drinking Fountain - Bubbler Tap (steel stand)",
            "Place": "Pioneer Park",
            "Street_Nam": "Station Street",
            "Town": "THORPDALE",
            "Latitude": -38.2874740043,
            "Longitude": 146.175880996
        },
        {
            "FID": 7,
            "Asset_Type": "Drinking Fountain - Bubbler Tap",
            "Place": "Civic Park (Drouin)",
            "Street_Nam": "Young Street",
            "Town": "DROUIN",
            "Latitude": -38.1346458697,
            "Longitude": 145.857831242
        },
        {
            "FID": 8,
            "Asset_Type": "Drinking Fountain - Bubbler Tap",
            "Place": "Memorial Park",
            "Street_Nam": "Princes Way Service Road (Drouin - 2)",
            "Town": "DROUIN",
            "Latitude": -38.1355090012,
            "Longitude": 145.855475003
        },
        {
            "FID": 9,
            "Asset_Type": "Drinking Fountain - Bubbler Tap",
            "Place": "Bellbird Park - Lampard Rd",
            "Street_Nam": "Lampard Road",
            "Town": "DROUIN",
            "Latitude": -38.1352668224,
            "Longitude": 145.844834577
        },
        {
            "FID": 10,
            "Asset_Type": "Drinking Fountain - Bubbler Tap",
            "Place": "Bellbird Park - Settlement Rd",
            "Street_Nam": "Settlement Road",
            "Town": "DROUIN",
            "Latitude": -38.136002005,
            "Longitude": 145.842458999
        },
        {
            "FID": 11,
            "Asset_Type": "Drinking Fountain - Bubbler Tap",
            "Place": "Burke Street Park",
            "Street_Nam": "Burke Street",
            "Town": "WARRAGUL",
            "Latitude": -38.1658734741,
            "Longitude": 145.928294959
        },
        {
            "FID": 12,
            "Asset_Type": "Drinking Fountain - Bubbler Tap",
            "Place": "Geoff Watt Track",
            "Street_Nam": "Burke Street",
            "Town": "WARRAGUL",
            "Latitude": -38.1650980029,
            "Longitude": 145.927437995
        },
        {
            "FID": 13,
            "Asset_Type": "Drinking Fountain - Bubbler Tap",
            "Place": "Biram Drive Park",
            "Street_Nam": "Biram Drive",
            "Town": "WARRAGUL",
            "Latitude": -38.1564819985,
            "Longitude": 145.916010002
        },
        {
            "FID": 14,
            "Asset_Type": "Drinking Fountain - Bubbler Tap (masnory stand)",
            "Place": "Civic Park (Warragul)",
            "Street_Nam": "Civic Place",
            "Town": "WARRAGUL",
            "Latitude": -38.1586309985,
            "Longitude": 145.934406005
        },
        {
            "FID": 15,
            "Asset_Type": "Drinking Fountain - Bubbler Tap (steel stand)",
            "Place": "Queen Street Park",
            "Street_Nam": "Queen Street",
            "Town": "WARRAGUL",
            "Latitude": -38.164192004,
            "Longitude": 145.931773005
        },
        {
            "FID": 16,
            "Asset_Type": "Drinking Fountain - Bubbler Tap",
            "Place": "Western Park Recreation Reserve",
            "Street_Nam": "Tarwin Street",
            "Town": "WARRAGUL",
            "Latitude": -38.1553610061,
            "Longitude": 145.920642995
        },
        {
            "FID": 17,
            "Asset_Type": "Drinking Fountain - Bubbler Tap",
            "Place": "Western Park Recreation Reserve",
            "Street_Nam": "Tarwin Street",
            "Town": "WARRAGUL",
            "Latitude": -38.1550489988,
            "Longitude": 145.920833005
        },
        {
            "FID": 18,
            "Asset_Type": "Drinking Fountain - Bubbler Tap",
            "Place": "Rotary Park",
            "Street_Nam": "Latrobe Street",
            "Town": "WARRAGUL",
            "Latitude": -38.158379673,
            "Longitude": 145.923170416
        },
        {
            "FID": 19,
            "Asset_Type": "Drinking Fountain - Refill Station",
            "Place": "Rotary Park",
            "Street_Nam": "Latrobe Street",
            "Town": "WARRAGUL",
            "Latitude": -38.1585460057,
            "Longitude": 145.923093003
        },
        {
            "FID": 20,
            "Asset_Type": "Drinking Fountain - Bubbler Tap",
            "Place": "Eastern Park",
            "Street_Nam": "Cambridge Drive",
            "Town": "WARRAGUL",
            "Latitude": -38.159113005,
            "Longitude": 145.940681999
        },
        {
            "FID": 21,
            "Asset_Type": "Drinking Fountain - Bubbler Tap (steel stand)",
            "Place": "Trafalgar Skate Park",
            "Street_Nam": "Depot Lane",
            "Town": "TRAFALGAR",
            "Latitude": -38.2086360046,
            "Longitude": 146.156392996
        },
        {
            "FID": 22,
            "Asset_Type": "Drinking Fountain - Bubbler Tap (solid stand)",
            "Place": "McGregor Park",
            "Street_Nam": "Contingent Street",
            "Town": "TRAFALGAR",
            "Latitude": -38.2115610019,
            "Longitude": 146.153998002
        },
        {
            "FID": 23,
            "Asset_Type": "Drinking Fountain - Bubbler Tap (steel stand)",
            "Place": "Bosanko Walk",
            "Street_Nam": "Clifford Drive",
            "Town": "DROUIN",
            "Latitude": -38.1417365832,
            "Longitude": 145.844841302
        },
        {
            "FID": 24,
            "Asset_Type": "Proposed Fountain",
            "Place": "CBD - Drouin",
            "Street_Nam": "Princes Hwy",
            "Town": "DROUIN",
            "Latitude": -38.1363639008,
            "Longitude": 145.857728907
        },
        {
            "FID": 25,
            "Asset_Type": "Proposed Fountain",
            "Place": "Palmerston Street",
            "Street_Nam": "Palmerston Street",
            "Town": "WARRAGUL",
            "Latitude": -38.1615366228,
            "Longitude": 145.931092713
        },
        {
            "FID": 26,
            "Asset_Type": "Proposed Fountain",
            "Place": "Public Toilet",
            "Street_Nam": "Depot Lane",
            "Town": "TRAFALGAR",
            "Latitude": -38.2086922746,
            "Longitude": 146.155408347
        },
        {
            "FID": 27,
            "Asset_Type": "Proposed Fountain",
            "Place": "Waterloo Park",
            "Street_Nam": "Princes Hwy",
            "Town": "YARRAGON",
            "Latitude": -38.2038223522,
            "Longitude": 146.064417199
        },
        {
            "FID": 28,
            "Asset_Type": "Proposed Fountain",
            "Place": "Victoria St pedestrian crossing",
            "Street_Nam": "Victoria Street",
            "Town": "WARRAGUL",
            "Latitude": -38.1624346562,
            "Longitude": 145.930656061
        },
        {
            "FID": 29,
            "Asset_Type": "Drinking Fountain - Bubbler Tap (steel stand)",
            "Place": "Civic Park (Drouin)",
            "Street_Nam": "Brynwood Avenue",
            "Town": "DROUIN",
            "Latitude": -38.1342693104,
            "Longitude": 145.860568597
        }
    ]
}